\relax 
\catcode `:\active 
\catcode `;\active 
\catcode `!\active 
\catcode `?\active 
\bibstyle{plain-fr}
\select@language{french}
\@writefile{toc}{\select@language{french}}
\@writefile{lof}{\select@language{french}}
\@writefile{lot}{\select@language{french}}
\@writefile{toc}{\contentsline {section}{\numberline {1}Partie bibliographique}{1}}
\@writefile{toc}{\contentsline {subsection}{\numberline {1.1}Contexte du sujet}{1}}
\citation{fothello}
\@writefile{toc}{\contentsline {subsection}{\numberline {1.2}Recherche de solution et des technologies}{2}}
\@writefile{lof}{\contentsline {figure}{\numberline {1}{\ignorespaces Architecture utilis\'ee pour le projet}}{2}}
\newlabel{fig:MVC}{{1}{2}}
\@writefile{toc}{\contentsline {section}{\numberline {2}R\'ealisation pratique}{3}}
\@writefile{toc}{\contentsline {subsection}{\numberline {2.1}L'architecture g\'en\'erale}{3}}
\@writefile{toc}{\contentsline {subsubsection}{\numberline {2.1.1}Plateau, pions et param\`etres}{3}}
\@writefile{toc}{\contentsline {subsubsection}{\numberline {2.1.2}Partie et instances}{3}}
\@writefile{toc}{\contentsline {subsection}{\numberline {2.2}L'intelligence artificielle}{4}}
\@writefile{toc}{\contentsline {subsubsection}{\numberline {2.2.1}Fonction d'\'evaluation}{4}}
\@writefile{toc}{\contentsline {subsubsection}{\numberline {2.2.2}Alogrithme minmax et \'elagage alpha/b\^eta}{4}}
\citation{jmdoudoux}
\@writefile{toc}{\contentsline {subsection}{\numberline {2.3}La vue d'une Partie}{5}}
\@writefile{lof}{\contentsline {figure}{\numberline {2}{\ignorespaces Vue du Menu}}{6}}
\newlabel{fig:VueMenu}{{2}{6}}
\@writefile{lof}{\contentsline {figure}{\numberline {3}{\ignorespaces Vue d'une d\'efaite}}{6}}
\newlabel{fig:Vue}{{3}{6}}
\@writefile{toc}{\contentsline {section}{\numberline {3}Conclusion}{6}}
\bibdata{biblio}
\bibcite{fothello}{1}
\bibcite{jmdoudoux}{2}
