\relax 
\catcode `:\active 
\catcode `;\active 
\catcode `!\active 
\catcode `?\active 
\bibstyle{plain-fr}
\select@language{french}
\@writefile{toc}{\select@language{french}}
\@writefile{lof}{\select@language{french}}
\@writefile{lot}{\select@language{french}}
\@writefile{toc}{\contentsline {section}{\numberline {1}D\~A\IeC {\copyright  }marrage du jeu}{1}}
\@writefile{toc}{\contentsline {paragraph}{Menu Principal}{1}}
\@writefile{toc}{\contentsline {paragraph}{Param\~A\"{}tres}{1}}
\@writefile{toc}{\contentsline {section}{\numberline {2}Jeu}{1}}
